[gd_scene load_steps=3 format=2]

[ext_resource path="res://assets/fonts/default_theme.tres" type="Theme" id=1]
[ext_resource path="res://src/ui/UserInterface.gd" type="Script" id=2]

[node name="UserInterface" type="Control"]
anchor_right = 1.0
anchor_bottom = 1.0
theme = ExtResource( 1 )
script = ExtResource( 2 )
__meta__ = {
"_edit_use_anchors_": false
}

[node name="score_label" type="Label" parent="."]
anchor_left = 1.0
anchor_right = 1.0
margin_left = -227.906
margin_top = 27.7597
margin_right = -87.9056
margin_bottom = 83.7597
text = "Score: 0"
align = 2
